../Core/Src/main.c:68:5:main	160	dynamic
../Core/Src/main.c:377:6:SystemClock_Config	72	static
../Core/Src/main.c:416:13:MX_NVIC_Init	8	static
../Core/Src/main.c:434:13:MX_GPIO_Init	40	static
../Core/Src/main.c:472:6:Error_Handler	4	static,ignoring_inline_asm
