../Core/Src/main.c:66:5:main	8	static
../Core/Src/main.c:113:6:SystemClock_Config	88	static
../Core/Src/main.c:159:13:MX_NVIC_Init	8	static
../Core/Src/main.c:177:13:MX_ADC1_Init	24	static
../Core/Src/main.c:224:13:MX_GPIO_Init	40	static
../Core/Src/main.c:259:6:Error_Handler	4	static,ignoring_inline_asm
